﻿  main.cpp
C:\Users\glebz\source\repos\BinarySearchTree\BinarySearchTree\BinarySearchTree.h(94,1): warning C4099: BinarySearchTree<T>::Node<T>: имя типа, ранее отображенное с помощью "struct", теперь отображено с помощью "class"
C:\Users\glebz\source\repos\BinarySearchTree\BinarySearchTree\BinarySearchTree.h(41,5): message : см. объявление "BinarySearchTree<T>::Node<T>"
C:\Users\glebz\source\repos\BinarySearchTree\BinarySearchTree\BinarySearchTree.h(94,1): warning C4099: BinarySearchTree<int>::Node<T>: имя типа, ранее отображенное с помощью "struct", теперь отображено с помощью "class"
          with
          [
              T=int
          ]
C:\Users\glebz\source\repos\BinarySearchTree\BinarySearchTree\BinarySearchTree.h(41,5): message : см. объявление "BinarySearchTree<int>::Node<T>"
          with
          [
              T=int
          ]
C:\Users\glebz\source\repos\BinarySearchTree\BinarySearchTree\BinarySearchTree.h(94,98): message : во время компиляции функции-члена класс шаблон "BinarySearchTree<int>::Node<T> *BinarySearchTree<T>::iterativeSearchNode(const T &) const"
          with
          [
              T=int
          ]
C:\Users\glebz\source\repos\BinarySearchTree\BinarySearchTree\BinarySearchTree.h(90,5): message : выполняется компиляция ссылки на экземпляр шаблон функции "BinarySearchTree<int>::Node<T> *BinarySearchTree<T>::iterativeSearchNode(const T &) const"
          with
          [
              T=int
          ]
C:\Users\glebz\source\repos\BinarySearchTree\BinarySearchTree\BinarySearchTree.h(56,41): message : во время компиляции функции-члена класс шаблон "BinarySearchTree<int>::BinarySearchTree(void)"
C:\Users\glebz\source\repos\BinarySearchTree\BinarySearchTree\main.cpp(7,27): message : выполняется компиляция ссылки на экземпляр шаблон функции "BinarySearchTree<int>::BinarySearchTree(void)"
C:\Users\glebz\source\repos\BinarySearchTree\BinarySearchTree\main.cpp(7,27): message : выполняется компиляция ссылки на экземпляр класс шаблон функции "BinarySearchTree<int>"
C:\Users\glebz\source\repos\BinarySearchTree\BinarySearchTree\BinarySearchTree.h(277): warning C4715: BinarySearchTree<int>::getHeight: значение возвращается не при всех путях выполнения
  BinarySearchTree.vcxproj -> C:\Users\glebz\source\repos\BinarySearchTree\x64\Debug\BinarySearchTree.exe
